{
    "wines": [
      {
        "id": 104312,
        "name": "#Hashtagged Fresh & Fruity",
        "color": "White",
        "producer": "#Hashtagged",
          "region":  "Spain",
          "price": 20.44,
          "currency" : "€",
          "img": "https://imgur.com/jlOgfP0.jpg"
      },
      {
        "id": 104313,
        "name": "#Hashtagged Full & Tasty",
        "color": "White",
        "producer": "#Hashtagged",
          "region": "Italy",
          "price": 23.44,
          "currency" : "€",
        "img": "https://imgur.com/jlOgfP0.jpg"
          },
      {
        "id": 104314,
        "name": "#Hashtagged Mild & Fruity",
        "color": "Red",
        "producer": "#Hashtagged",
        "region": "France",
        "price": 18.55,
        "currency" : "€",
        "img": "https://imgur.com/jQcRste.jpg"

      },
      {
        "id": 104315,
        "name": "#Hashtagged Pink & Juicy",
        "color": "Rosé",
        "producer": "#Hashtagged",
          "region": "Moldova",
        "price": 10.33,
        "currency" : "€",
        "img": "https://i.imgur.com/mNbkbnP.jpg"
      },
      {
        "id": 104316,
        "name": "#Hashtagged Tasty & Powerful",
        "color": "Red",
        "producer": "#Hashtagged",
          "region": "Spain",
        "price": 13.55,
        "currency" : "€",
        "img": "https://i.imgur.com/mNbkbnP.jpg"
      },
      {
        "id": 104317,
        "name": "@ Sauvignon Blanc",
        "color": "White",
        "producer": "Ferro 13",
          "region": "Italy",
        "price": 21.55,
        "currency" : "€",
        "img": "https://i.imgur.com/jlOgfP0.jpg"
      },
      {
        "id": 104318,
        "name": "`A` Label Cabernet Franc",
        "color": "Red",
        "producer":  "Arcadian Estate Winery",
          "region": "USA",

        "price": 13.33,
        "currency" : "€",
        "img": "https://i.imgur.com/mNbkbnP.jpg"

      },
      {
        "id": 104319,
        "name": "`A` Label Dry Riesling",
        "color": "White",
        "producer": "Arcadian Estate Winery",
          "region":  "USA",
        "price": 122.31,
        "currency" : "€",
        "img": "https://i.imgur.com/jlOgfP0.jpg"
      },
      {
        "id": 104320,
        "name": "`A` Label Merlot",
        "color": "Red",
        "producer":  "Arcadian Estate Winery",
          "region": "France",
        "price": 18.55,
        "currency" : "€",
        "img": "https://i.imgur.com/mNbkbnP.jpg"

      },
      {
        "id": 104321,
        "name": "`A` Label Pinot gris",
        "color": "White",
        "producer":  "Arcadian Estate Winery",
          "region": "USA",
        "price": 182.32,
        "currency" : "€",
        "img": "https://i.imgur.com/jlOgfP0.jpg"
      },
      {
        "id": 104322,
        "name": "Cherry Blossom",
        "color": "Red",
        "producer": "Blossom Wines",
          "region": "Armenia",
        "price": 11.55,
        "currency" : "€",
        "img": "https://i.imgur.com/mNbkbnP.jpg"

      },
      {
        "id": 104323,
        "name": "1/11 Rosat",
        "color": "Rosé",
        "producer":  "Cal Cabo Celler",
          "region": "Spain",
        "price": 18.00,
        "currency" : "€",
        "img": "https://i.imgur.com/mNbkbnP.jpg"

      },
      {
        "id": 104324,
        "name": "1+1=3 Viognier",
        "color": "White",
        "producer": "Dahlia",
          "region": "France",
        "price": 19.00,
        "currency" : "€",
        "img": "https://i.imgur.com/jlOgfP0.jpg"
      },
      {
        "id": 104325,
        "name": "10 Langhe Bianco",
        "color": "White",
        "producer":  "Massimo Rattalino",
          "region": "Italy",
        "price": 18.55,
        "currency" : "€",
        "img": "https://i.imgur.com/6WboLHc.jpg"},
      {
        "id": 104326,
        "name": "10 Year Old Port",
        "color": "Red",
        "producer": "Porto Quevedo",
          "region":"Portugal",
        "price": 21.99,
        "currency" : "€",
        "img": "https://i.imgur.com/mNbkbnP.jpg"

      },
      {
        "id": 104327,
        "name": "10 Year Old Tawny",
        "color": "Red",
        "producer":"Fonseca Guimaraens",
          "region": "Portugal",
        "price": 21.99,
        "currency" : "€",
        "img": "https://i.imgur.com/U7X2gJ2.jpg"

      },
      {
        "id": 104328,
        "name": "10 Year Old Tawny",
        "color": "Red",
        "producer":"Niepoort",
          "region": "Portugal",
        "price": 23.99,
        "currency" : "€",
        "img": "https://i.imgur.com/U7X2gJ2.jpg"

      },
      {
        "id": 104329,
        "name": "10 Year Old Tawny Port",
        "color": "Red",
        "producer": "Barossa Vines Winery",
          "region": "Australia", 
        "price": 21.00,
        "currency" : "€",
        "img": "https://i.imgur.com/U7X2gJ2.jpg"
      },
      {
        "id": 104330,
        "name": "10 Year Old Tawny Port",
        "color": "Red",
        "producer": "Quinta do Portal",
          "region": "Portugal",
        "price": 23.00,
        "currency" : "€",
        "img": "https://i.imgur.com/U7X2gJ2.jpg"
      },
      {
        "id": 104331,
        "name": "10 Year Old Tawny Porto",
        "color": "Red",
        "producer":  "J W Burmester & Cª",
          "region": "Portugal",
        "price": 19.21,
        "currency" : "€",
        "img": "https://i.imgur.com/U7X2gJ2.jpg"

      },
      {
        "id": 104332,
        "name": "10 years old Port",
        "color": "Red",
        "producer": "Barão de Vilar",
          "region": "Portugal",
        "price": 21.32,
        "currency" : "€",
        "img": "https://i.imgur.com/U7X2gJ2.jpg"
      },
      {
        "id": 104333,
        "name": "10 Years Old Port",
        "color": "Red",
        "producer": "Calem",
          "region": "Portugal",
        "price": 66.89,
        "currency" : "€",
        "img": "https://i.imgur.com/6WboLHc.jpg"

      },
      {
        "id": 104334,
        "name": "10 Years Old Port",
        "color": "Red",
        "producer": "Kopke",
          "region": "Portugal",
        "price": 86.89,
        "currency" : "€",
        "img": "https://i.imgur.com/jQcRste.jpg"
      },
      {
        "id": 104335,
        "name": "10 years old Tawny",
        "color": "Red",
        "producer":  "Quinta de la Rosa",
          "region": "Portugal",
        "price": 17.99,
        "currency" : "€",
        "img": "https://i.imgur.com/jQcRste.jpg"
      },
     
      {
        "id": 104345,
        "name": "100 Year Old Vine Cabernet Sauvignon",
        "color": "Red",
        "producer":  "Heath Wines",
          "region": "Australia",
        "price": 44.22,
        "currency" : "€",
        "img": "https://i.imgur.com/jQcRste.jpg"
      },
      {
        "id": 104346,
        "name": "100 Year Old Vine Shiraz",
        "color": "Red",
        "producer":  "Heath Wines",
          "region": "USA",
        "price": 32.33,
        "currency" : "€",
        "img": "https://i.imgur.com/mNbkbnP.jpg"
      },
      {
        "id": 104347,
        "name": "100 Year Old Vine Shiraz Cabernet Sauvignon",
        "color": "Red",
        "producer":  "Heath Wines",
          "region": "USA",
        "price": 17.99,
        "currency" : "€",
        "img": "https://i.imgur.com/mNbkbnP.jpg"
      },
      {
        "id": 104348,
        "name": "100% Worcester Chenin Blanc",
        "color": "White",
        "producer":  "Worcester Winelands",
          "region":"South Africa",
        "price": 19.22,
        "currency" : "€",
        "img":"https://i.imgur.com/jlOgfP0.jpg"
      },
      {
        "id": 104349,
        "name": "100% Worcester Sauvignon Blanc",
        "color": "White",
        "producer":  "Worcester Winelands",
          "region": "South Africa",
        "price": 17.99,
        "currency" : "€",
        "img": "https://i.imgur.com/jlOgfP0.jpg"
      },
      
      {
        "id": 104351,
        "name": "1000-Eimerberg Riesling Federspiel",
        "color": "White",
        "producer":  "Weingut FJ Gritsch Mauritiushof",
          "region": "Austria",
        "price": 32.99,
        "currency" : "€",
        "img": "https://i.imgur.com/jlOgfP0.jpg"
      },
      {
        "id": 104352,
        "name": "1008",
        "color": "Red",
        "producer": "Weingut Feiler-Artinger",
          "region": "Austria",
          "price": 38.99,
          "currency" : "€",
          "img": "https://i.imgur.com/U7X2gJ2.jpg"
        },
      {
        "id": 104354,
        "name": "12 Lunas Tinto",
        "color": "Red",
        "producer":  "Bodega El Grillo y La Luna",
          "region": "Argentina",
        "price": 100.00,
        "currency" : "€",
        "img": "https://i.imgur.com/jlOgfP0.jpg"
      },
      {
        "id": 104355,
        "name": "12 Meses",
        "color": "Red",
        "producer": "Bodegas Pedro-Luis Martinez",
          "region": "Argentina",
        "price": 171.99,
        "currency" : "€",
        "img": "https://i.imgur.com/U7X2gJ2.jpg"
      },
      {
        "id": 104356,
        "name": "12 Volts",
        "color": "Red",
        "producer":  "4Kilos Vinicola",
          "region":"Spain",
        "price": 120.33,
        "currency" : "€",
        "img": "https://i.imgur.com/U7X2gJ2.jpg"
      },
      {
        "id": 104357,
        "name": "120 Cabernet Franc",
        "color": "Red",
        "producer":  "Santa Rita",
          "region": "Chile",
        "price": 17.99,
        "currency" : "€",
        "img":  "https://i.imgur.com/jQcRste.jpg"
      },
      {
        "id": 104358,
        "name": "120 Cabernet Sauvignon",
        "color": "Red",
        "producer":  "Santa Rita",
          "region": "Chile",
        "price": 52.99,
        "currency" : "€",
        "img": "https://i.imgur.com/jQcRste.jpg"
      },
      {
        "id": 104359,
        "name": "120 Carmenère",
        "color": "Red",
        "producer":  "Santa Rita",
          "region": "Chile",
        "price": 76.44,
        "currency" : "€",
        "img": "https://i.imgur.com/jQcRste.jpg"
      },
      
      {
        "id": 104377,
        "name": "125 Negroamaro del Salento",
        "color": "Red",
        "producer": "Feudi Salentini",
          "region": "Italy",
          "price": 35.99,
          "currency" : "€",
          "img": "https://i.imgur.com/mNbkbnP.jpg"
      },
      {
        "id": 104378,
        "name": "131 Select Gewürztraminer",
        "color": "White",
        "producer":  "Pentamere Winery",
          "region": "USA",
        "price": 39.99,
        "currency" : "€",
        "img": "https://i.imgur.com/jlOgfP0.jpg"

      },
      {
        "id": 104379,
        "name": "1368 Barranco Oscuro Crianza",
        "color": "Red",
        "producer":  "Bodega Barranco Oscuro",
          "region": "Spain", 
        "price": 46.69,
        "currency" : "€",
        "img": "https://i.imgur.com/mNbkbnP.jpg"
      },
      {
        "id": 104380,
        "name": "13th Floor Vineyards Cabernet Sauvignon California",
        "color": "Red",
        "producer": "Gualdo Del Re",
          "region": "Italy",
        "price": 46.69,
        "currency" : "€",
        "img": "https://i.imgur.com/mNbkbnP.jpg"
      },
      {
        "id": 104381,
        "name": "1503 Brut",
        "color": "White",
        "producer": "Balfour",
          "region":"France",
        "price": 41.64,
        "currency" : "€",
        "img": "https://i.imgur.com/6WboLHc.jpg"

      },
      {
        "id": 104382,
        "name": "1503 Brut Rosé",
        "color": "Rosé",
        "producer":  "Balfour",
          "region": "France",
        "price": 143.55,
        "currency" : "€",
        "img": "https://i.imgur.com/6WboLHc.jpg"
      },
      {
        "id": 104383,
        "name": "1560 Rouge",
        "color": "Red",
        "producer": "Clos de Garaud",
          "region": "France",
        "price": 46.22,
        "currency" : "€",
        "img": "https://i.imgur.com/U7X2gJ2.jpg"
      },
      {
        "id": 104384,
        "name": "1-5-7 Merlot",
        "color": "Red",
        "producer": "Fisher Vineyards",
          "region": "USA",
        "price": 47.69,
        "currency" : "€",
        "img": "https://i.imgur.com/U7X2gJ2.jpg"
      },
      {
        "id": 104385,
        "name": "1583 Albariño De Fefiñanes Barrica",
        "color": "White",
        "producer":"Bodegas del Palacio de Fefiñanes",
          "region": "Spain",
        "price": 56.69,
        "currency" : "€",
        "img": "https://i.imgur.com/6WboLHc.jpg"

      },
      {
        "id": 104398,
        "name": "1707 - Chardonnay",
        "color": "White",
        "producer":  "Hacienda el Espino",
          "region": "Chile",
        "price": 69.89,
        "currency" : "€",
        "img": "https://i.imgur.com/6WboLHc.jpg"
      },
      {
        "id": 104399,
        "name": "1707 - Chardonnay Fermented In Barrels",
        "color": "White",
        "producer":  "Hacienda el Espino",
          "region": "Chile",
        "price": 62.82,
        "currency" : "€",
        "img": "https://i.imgur.com/6WboLHc.jpg"
      },
      {
        "id": 104400,
        "name": "1707 - Shiraz",
        "color": "Red",
        "producer":  "Hacienda el Espino",
          "region": "Spain",
        "price": 72.89,
        "currency" : "€",
        "img": "https://i.imgur.com/U7X2gJ2.jpg"
      },
      {
        "id": 104401,
        "name": "1707 - Variedades",
        "color": "Red",
        "producer":  "Hacienda el Espino",
          "region": "Spain",
        "price": 99.89,
        "currency" : "€",
        "img": "https://i.imgur.com/U7X2gJ2.jpg"
      },
      {
        "id": 104402,
        "name": "1707 Reserve",
        "color": "Red",
        "producer":  "Stellenbosch Hills",
          "region": "Argentina",
        "price": 88.89,
        "currency" : "€",
        "img": "https://i.imgur.com/U7X2gJ2.jpg"
      },
      {
        "id": 104408,
        "name": "1823 Shiraz-Malbec",
        "color": "Red",
        "producer": "Yé-Yé",
          "region": "Argentina",
        "price": 92.89,
        "currency" : "€",
        "img": "https://i.imgur.com/mNbkbnP.jpg"
      }
    ],
    "users": [
      
    ],
    "links": {
      "first": "https://portal.winedata.io/api/wines?page=1",
      "last": "https://portal.winedata.io/api/wines?page=1045",
      "prev": null,
      "next": "https://portal.winedata.io/api/wines?page=2"
    },
    "meta": {
      "current_page": 1,
      "from": 1,
      "last_page": 1045,
      "path": "https://portal.winedata.io/api/wines",
      "per_page": "100",
      "to": 100,
      "total": 104445
    }
  }
  